Lecture 1: Installing R and RStudio, Sneak Preview
…
In general, conflicts can be seen using the following command:

conflicts()

We can also install several packages at the same time. In order to do so, we have to concatenate the names of various packages to the argument of install.packages:

install.packages(c("stargazer", "lubridate"))

Basic R syntax: Base R

Now, let us try to acquaint ourselves with the basic syntax of R. R contains several example dataset with which we can practise. For example, here is Iris:

tibble(iris)

## # A tibble: 150 x 5
##    Sepal.Length Sepal.Width Petal.Length Petal.Width Species
##           <dbl>       <dbl>        <dbl>       <dbl> <fct>  
##  1          5.1         3.5          1.4         0.2 setosa 
##  2          4.9         3            1.4         0.2 setosa 
##  3          4.7         3.2          1.3         0.2 setosa 
##  4          4.6         3.1          1.5         0.2 setosa 
##  5          5           3.6          1.4         0.2 setosa 
##  6          5.4         3.9          1.7         0.4 setosa 
##  7          4.6         3.4          1.4         0.3 setosa 
##  8          5           3.4          1.5         0.2 setosa 
##  9          4.4         2.9          1.4         0.2 setosa 
## 10          4.9         3.1          1.5         0.1 setosa 
## #  with 140 more rows
…
